<svg id="Layer_1" style="enable-background:new 0 0 16.3 14.1;" version="1.1" viewBox="0 0 16.3 14.1" x="0px" xml:space="preserve" xmlns:xlink="http://www.w3.org/1999/xlink" xmlns="http://www.w3.org/2000/svg" y="0px">
  <style>
    .heart0{fill:#fff;}
  </style>
  <path class="heart0" d="M15,6.9L8.1,14L1.3,6.9c-1.6-1.5-1.6-4.1-0.1-5.7c1.5-1.6,4.1-1.6,5.7-0.1c0,0,0,0,0.1,0.1l1.2,1.4
 l1.2-1.4c1.5-1.6,4.1-1.6,5.7-0.1S16.6,5.3,15,6.9C15,6.9,15,6.9,15,6.9z" id="heart">
  </path>
</svg>